﻿TransactionId,Amount,CurrencyCode,Date,Status
Invoice0000001,1000,USD,20/02/2019 12:33:16,Approved
Invoice0000002,300,USD,21/02/2019 02:04:59,Approved
Invoice0000003,700,USD,22/02/2019 02:15:50,Failed
Invoice0000004,400,USD,23/02/2019 01:05:10,Failed
Invoice0000005,900,USD,24/02/2019 12:05:18,Finished
Invoice0000006,300,USD,25/02/2019 02:04:59,Finished
Invoice0000007,1000,EUR,20/02/2019 12:35:26,Approved
Invoice0000008,300,EUR,21/02/2019 02:07:58,Approved
Invoice0000009,700,EUR,22/02/2019 03:17:55,Failed
Invoice0000010,400,EUR,23/02/2019 04:15:10,Failed
Invoice0000011,900,EUR,24/02/2019 12:35:18,Finished
Invoice0000012,300,EUR,25/02/2019 02:45:49,Finished
